{
  "package": {
    "productName": "rechaos",
    "version": "0.1.0"
  },
  "build": {
    "distDir": "../dist",
    "devPath": "http://localhost:3000",
    "beforeDevCommand": "npm run start",
    "beforeBuildCommand": "npm run build"
  },
  "tauri": {
    "bundle": {
      "active": true,
      "targets": "all",
      "identifier": "dev.floric.rechaos",
      "icon": [
        "icons/32x32.png",
        "icons/128x128.png",
        "icons/128x128@2x.png",
        "icons/icon.icns",
        "icons/icon.ico"
      ],
      "resources": [],
      "externalBin": [],
      "copyright": "",
      "category": "GraphicsAndDesign",
      "shortDescription": "",
      "longDescription": "",
      "deb": {
        "depends": [],
        "useBootstrapper": false
      },
      "macOS": {
        "frameworks": [],
        "minimumSystemVersion": "",
        "useBootstrapper": false,
        "exceptionDomain": "",
        "signingIdentity": null,
        "entitlements": null
      },
      "windows": {
        "certificateThumbprint": null,
        "digestAlgorithm": "sha256",
        "timestampUrl": ""
      }
    },
    "updater": {
      "active": false
    },
    "allowlist": {
      "all": true
    },
    "windows": [
      {
        "title": "rechaos",
        "width": 800,
        "height": 600,
        "minHeight": 50,
        "minWidth": 100,
        "resizable": true,
        "fullscreen": false,
        "fileDropEnabled": false
      }
    ],
    "security": {
      "csp": "default-src blob: data: filesystem: ws: http: https: 'unsafe-eval' 'unsafe-inline' 'self' img-src: 'self'"
    }
  }
}
